solid ASCII
  facet normal 9.914449e-01 0.000000e+00 -1.305262e-01
    outer loop
      vertex   4.130667e+00 2.000000e+00 3.753294e+01
      vertex   4.130667e+00 0.000000e+00 3.753294e+01
      vertex   4.100000e+00 2.000000e+00 3.730000e+01
    endloop
  endfacet
  facet normal 9.914449e-01 0.000000e+00 -1.305262e-01
    outer loop
      vertex   4.100000e+00 2.000000e+00 3.730000e+01
      vertex   4.130667e+00 0.000000e+00 3.753294e+01
      vertex   4.100000e+00 0.000000e+00 3.730000e+01
    endloop
  endfacet
  facet normal 9.914449e-01 0.000000e+00 1.305262e-01
    outer loop
      vertex   4.100000e+00 2.000000e+00 3.730000e+01
      vertex   4.100000e+00 0.000000e+00 3.730000e+01
      vertex   4.130667e+00 2.000000e+00 3.706706e+01
    endloop
  endfacet
  facet normal 9.914449e-01 0.000000e+00 1.305262e-01
    outer loop
      vertex   4.130667e+00 2.000000e+00 3.706706e+01
      vertex   4.100000e+00 0.000000e+00 3.730000e+01
      vertex   4.130667e+00 0.000000e+00 3.706706e+01
    endloop
  endfacet
  facet normal 9.238795e-01 0.000000e+00 3.826834e-01
    outer loop
      vertex   4.130667e+00 2.000000e+00 3.706706e+01
      vertex   4.130667e+00 0.000000e+00 3.706706e+01
      vertex   4.220577e+00 2.000000e+00 3.685000e+01
    endloop
  endfacet
  facet normal 9.238795e-01 4.102849e-16 3.826834e-01
    outer loop
      vertex   4.220577e+00 2.000000e+00 3.685000e+01
      vertex   4.130667e+00 0.000000e+00 3.706706e+01
      vertex   4.220577e+00 0.000000e+00 3.685000e+01
    endloop
  endfacet
  facet normal 7.933533e-01 3.523197e-16 6.087614e-01
    outer loop
      vertex   4.220577e+00 2.000000e+00 3.685000e+01
      vertex   4.220577e+00 0.000000e+00 3.685000e+01
      vertex   4.363604e+00 2.000000e+00 3.666360e+01
    endloop
  endfacet
  facet normal 7.933533e-01 0.000000e+00 6.087614e-01
    outer loop
      vertex   4.363604e+00 2.000000e+00 3.666360e+01
      vertex   4.220577e+00 0.000000e+00 3.685000e+01
      vertex   4.363604e+00 0.000000e+00 3.666360e+01
    endloop
  endfacet
  facet normal 6.087614e-01 0.000000e+00 7.933533e-01
    outer loop
      vertex   4.363604e+00 2.000000e+00 3.666360e+01
      vertex   4.363604e+00 0.000000e+00 3.666360e+01
      vertex   4.550000e+00 2.000000e+00 3.652058e+01
    endloop
  endfacet
  facet normal 6.087614e-01 2.703444e-16 7.933533e-01
    outer loop
      vertex   4.550000e+00 2.000000e+00 3.652058e+01
      vertex   4.363604e+00 0.000000e+00 3.666360e+01
      vertex   4.550000e+00 0.000000e+00 3.652058e+01
    endloop
  endfacet
  facet normal 3.826834e-01 1.699456e-16 9.238795e-01
    outer loop
      vertex   4.550000e+00 2.000000e+00 3.652058e+01
      vertex   4.550000e+00 0.000000e+00 3.652058e+01
      vertex   4.767063e+00 2.000000e+00 3.643067e+01
    endloop
  endfacet
  facet normal 3.826834e-01 1.699456e-16 9.238795e-01
    outer loop
      vertex   4.767063e+00 2.000000e+00 3.643067e+01
      vertex   4.550000e+00 0.000000e+00 3.652058e+01
      vertex   4.767063e+00 0.000000e+00 3.643067e+01
    endloop
  endfacet
  facet normal 1.305262e-01 5.796527e-17 9.914449e-01
    outer loop
      vertex   4.767063e+00 2.000000e+00 3.643067e+01
      vertex   4.767063e+00 0.000000e+00 3.643067e+01
      vertex   5.000000e+00 2.000000e+00 3.640000e+01
    endloop
  endfacet
  facet normal 1.305262e-01 0.000000e+00 9.914449e-01
    outer loop
      vertex   5.000000e+00 2.000000e+00 3.640000e+01
      vertex   4.767063e+00 0.000000e+00 3.643067e+01
      vertex   5.000000e+00 0.000000e+00 3.640000e+01
    endloop
  endfacet
  facet normal -1.305262e-01 0.000000e+00 9.914449e-01
    outer loop
      vertex   5.000000e+00 2.000000e+00 3.640000e+01
      vertex   5.000000e+00 0.000000e+00 3.640000e+01
      vertex   5.232937e+00 2.000000e+00 3.643067e+01
    endloop
  endfacet
  facet normal -1.305262e-01 0.000000e+00 9.914449e-01
    outer loop
      vertex   5.232937e+00 2.000000e+00 3.643067e+01
      vertex   5.000000e+00 0.000000e+00 3.640000e+01
      vertex   5.232937e+00 0.000000e+00 3.643067e+01
    endloop
  endfacet
  facet normal -3.826834e-01 0.000000e+00 9.238795e-01
    outer loop
      vertex   5.232937e+00 2.000000e+00 3.643067e+01
      vertex   5.232937e+00 0.000000e+00 3.643067e+01
      vertex   5.450000e+00 2.000000e+00 3.652058e+01
    endloop
  endfacet
  facet normal -3.826834e-01 -1.699456e-16 9.238795e-01
    outer loop
      vertex   5.450000e+00 2.000000e+00 3.652058e+01
      vertex   5.232937e+00 0.000000e+00 3.643067e+01
      vertex   5.450000e+00 0.000000e+00 3.652058e+01
    endloop
  endfacet
  facet normal -6.087614e-01 -2.703444e-16 7.933533e-01
    outer loop
      vertex   5.450000e+00 2.000000e+00 3.652058e+01
      vertex   5.450000e+00 0.000000e+00 3.652058e+01
      vertex   5.636396e+00 2.000000e+00 3.666360e+01
    endloop
  endfacet
  facet normal -6.087614e-01 0.000000e+00 7.933533e-01
    outer loop
      vertex   5.636396e+00 2.000000e+00 3.666360e+01
      vertex   5.450000e+00 0.000000e+00 3.652058e+01
      vertex   5.636396e+00 0.000000e+00 3.666360e+01
    endloop
  endfacet
  facet normal -7.933533e-01 0.000000e+00 6.087614e-01
    outer loop
      vertex   5.636396e+00 2.000000e+00 3.666360e+01
      vertex   5.636396e+00 0.000000e+00 3.666360e+01
      vertex   5.779423e+00 2.000000e+00 3.685000e+01
    endloop
  endfacet
  facet normal -7.933533e-01 0.000000e+00 6.087614e-01
    outer loop
      vertex   5.779423e+00 2.000000e+00 3.685000e+01
      vertex   5.636396e+00 0.000000e+00 3.666360e+01
      vertex   5.779423e+00 0.000000e+00 3.685000e+01
    endloop
  endfacet
  facet normal -9.238795e-01 0.000000e+00 3.826834e-01
    outer loop
      vertex   5.779423e+00 2.000000e+00 3.685000e+01
      vertex   5.779423e+00 0.000000e+00 3.685000e+01
      vertex   5.869333e+00 2.000000e+00 3.706706e+01
    endloop
  endfacet
  facet normal -9.238795e-01 0.000000e+00 3.826834e-01
    outer loop
      vertex   5.869333e+00 2.000000e+00 3.706706e+01
      vertex   5.779423e+00 0.000000e+00 3.685000e+01
      vertex   5.869333e+00 0.000000e+00 3.706706e+01
    endloop
  endfacet
  facet normal -9.914449e-01 0.000000e+00 1.305262e-01
    outer loop
      vertex   5.869333e+00 2.000000e+00 3.706706e+01
      vertex   5.869333e+00 0.000000e+00 3.706706e+01
      vertex   5.900000e+00 2.000000e+00 3.730000e+01
    endloop
  endfacet
  facet normal -9.914449e-01 0.000000e+00 1.305262e-01
    outer loop
      vertex   5.900000e+00 2.000000e+00 3.730000e+01
      vertex   5.869333e+00 0.000000e+00 3.706706e+01
      vertex   5.900000e+00 0.000000e+00 3.730000e+01
    endloop
  endfacet
  facet normal -9.914449e-01 -0.000000e+00 -1.305262e-01
    outer loop
      vertex   5.900000e+00 2.000000e+00 3.730000e+01
      vertex   5.900000e+00 0.000000e+00 3.730000e+01
      vertex   5.869333e+00 2.000000e+00 3.753294e+01
    endloop
  endfacet
  facet normal -9.914449e-01 -4.637222e-16 -1.305262e-01
    outer loop
      vertex   5.869333e+00 2.000000e+00 3.753294e+01
      vertex   5.900000e+00 0.000000e+00 3.730000e+01
      vertex   5.869333e+00 0.000000e+00 3.753294e+01
    endloop
  endfacet
  facet normal -9.238795e-01 -1.359565e-15 -3.826834e-01
    outer loop
      vertex   5.869333e+00 2.000000e+00 3.753294e+01
      vertex   5.869333e+00 0.000000e+00 3.753294e+01
      vertex   5.779423e+00 2.000000e+00 3.775000e+01
    endloop
  endfacet
  facet normal -9.238795e-01 -0.000000e+00 -3.826834e-01
    outer loop
      vertex   5.779423e+00 2.000000e+00 3.775000e+01
      vertex   5.869333e+00 0.000000e+00 3.753294e+01
      vertex   5.779423e+00 0.000000e+00 3.775000e+01
    endloop
  endfacet
  facet normal -7.933533e-01 -0.000000e+00 -6.087614e-01
    outer loop
      vertex   5.779423e+00 2.000000e+00 3.775000e+01
      vertex   5.779423e+00 0.000000e+00 3.775000e+01
      vertex   5.636396e+00 2.000000e+00 3.793640e+01
    endloop
  endfacet
  facet normal -7.933533e-01 -0.000000e+00 -6.087614e-01
    outer loop
      vertex   5.636396e+00 2.000000e+00 3.793640e+01
      vertex   5.779423e+00 0.000000e+00 3.775000e+01
      vertex   5.636396e+00 0.000000e+00 3.793640e+01
    endloop
  endfacet
  facet normal -6.087614e-01 -0.000000e+00 -7.933533e-01
    outer loop
      vertex   5.636396e+00 2.000000e+00 3.793640e+01
      vertex   5.636396e+00 0.000000e+00 3.793640e+01
      vertex   5.450000e+00 2.000000e+00 3.807942e+01
    endloop
  endfacet
  facet normal -6.087614e-01 2.703444e-16 -7.933533e-01
    outer loop
      vertex   5.450000e+00 2.000000e+00 3.807942e+01
      vertex   5.636396e+00 0.000000e+00 3.793640e+01
      vertex   5.450000e+00 0.000000e+00 3.807942e+01
    endloop
  endfacet
  facet normal -3.826834e-01 1.699456e-16 -9.238795e-01
    outer loop
      vertex   5.450000e+00 2.000000e+00 3.807942e+01
      vertex   5.450000e+00 0.000000e+00 3.807942e+01
      vertex   5.232937e+00 2.000000e+00 3.816933e+01
    endloop
  endfacet
  facet normal -3.826834e-01 -0.000000e+00 -9.238795e-01
    outer loop
      vertex   5.232937e+00 2.000000e+00 3.816933e+01
      vertex   5.450000e+00 0.000000e+00 3.807942e+01
      vertex   5.232937e+00 0.000000e+00 3.816933e+01
    endloop
  endfacet
  facet normal -1.305262e-01 -0.000000e+00 -9.914449e-01
    outer loop
      vertex   5.232937e+00 2.000000e+00 3.816933e+01
      vertex   5.232937e+00 0.000000e+00 3.816933e+01
      vertex   5.000000e+00 2.000000e+00 3.820000e+01
    endloop
  endfacet
  facet normal -1.305262e-01 -0.000000e+00 -9.914449e-01
    outer loop
      vertex   5.000000e+00 2.000000e+00 3.820000e+01
      vertex   5.232937e+00 0.000000e+00 3.816933e+01
      vertex   5.000000e+00 0.000000e+00 3.820000e+01
    endloop
  endfacet
  facet normal 1.305262e-01 0.000000e+00 -9.914449e-01
    outer loop
      vertex   5.000000e+00 2.000000e+00 3.820000e+01
      vertex   5.000000e+00 0.000000e+00 3.820000e+01
      vertex   4.767063e+00 2.000000e+00 3.816933e+01
    endloop
  endfacet
  facet normal 1.305262e-01 -5.796527e-17 -9.914449e-01
    outer loop
      vertex   4.767063e+00 2.000000e+00 3.816933e+01
      vertex   5.000000e+00 0.000000e+00 3.820000e+01
      vertex   4.767063e+00 0.000000e+00 3.816933e+01
    endloop
  endfacet
  facet normal 3.826834e-01 -1.699456e-16 -9.238795e-01
    outer loop
      vertex   4.767063e+00 2.000000e+00 3.816933e+01
      vertex   4.767063e+00 0.000000e+00 3.816933e+01
      vertex   4.550000e+00 2.000000e+00 3.807942e+01
    endloop
  endfacet
  facet normal 3.826834e-01 -1.699456e-16 -9.238795e-01
    outer loop
      vertex   4.550000e+00 2.000000e+00 3.807942e+01
      vertex   4.767063e+00 0.000000e+00 3.816933e+01
      vertex   4.550000e+00 0.000000e+00 3.807942e+01
    endloop
  endfacet
  facet normal 6.087614e-01 -2.703444e-16 -7.933533e-01
    outer loop
      vertex   4.550000e+00 2.000000e+00 3.807942e+01
      vertex   4.550000e+00 0.000000e+00 3.807942e+01
      vertex   4.363604e+00 2.000000e+00 3.793640e+01
    endloop
  endfacet
  facet normal 6.087614e-01 0.000000e+00 -7.933533e-01
    outer loop
      vertex   4.363604e+00 2.000000e+00 3.793640e+01
      vertex   4.550000e+00 0.000000e+00 3.807942e+01
      vertex   4.363604e+00 0.000000e+00 3.793640e+01
    endloop
  endfacet
  facet normal 7.933533e-01 0.000000e+00 -6.087614e-01
    outer loop
      vertex   4.363604e+00 2.000000e+00 3.793640e+01
      vertex   4.363604e+00 0.000000e+00 3.793640e+01
      vertex   4.220577e+00 2.000000e+00 3.775000e+01
    endloop
  endfacet
  facet normal 7.933533e-01 -3.523197e-16 -6.087614e-01
    outer loop
      vertex   4.220577e+00 2.000000e+00 3.775000e+01
      vertex   4.363604e+00 0.000000e+00 3.793640e+01
      vertex   4.220577e+00 0.000000e+00 3.775000e+01
    endloop
  endfacet
  facet normal 9.238795e-01 -4.102849e-16 -3.826834e-01
    outer loop
      vertex   4.220577e+00 2.000000e+00 3.775000e+01
      vertex   4.220577e+00 0.000000e+00 3.775000e+01
      vertex   4.130667e+00 2.000000e+00 3.753294e+01
    endloop
  endfacet
  facet normal 9.238795e-01 0.000000e+00 -3.826834e-01
    outer loop
      vertex   4.130667e+00 2.000000e+00 3.753294e+01
      vertex   4.220577e+00 0.000000e+00 3.775000e+01
      vertex   4.130667e+00 0.000000e+00 3.753294e+01
    endloop
  endfacet
  facet normal 9.914449e-01 0.000000e+00 -1.305262e-01
    outer loop
      vertex   -5.869333e+00 2.000000e+00 3.753294e+01
      vertex   -5.869333e+00 0.000000e+00 3.753294e+01
      vertex   -5.900000e+00 2.000000e+00 3.730000e+01
    endloop
  endfacet
  facet normal 9.914449e-01 0.000000e+00 -1.305262e-01
    outer loop
      vertex   -5.900000e+00 2.000000e+00 3.730000e+01
      vertex   -5.869333e+00 0.000000e+00 3.753294e+01
      vertex   -5.900000e+00 0.000000e+00 3.730000e+01
    endloop
  endfacet
  facet normal 9.914449e-01 0.000000e+00 1.305262e-01
    outer loop
      vertex   -5.900000e+00 2.000000e+00 3.730000e+01
      vertex   -5.900000e+00 0.000000e+00 3.730000e+01
      vertex   -5.869333e+00 2.000000e+00 3.706706e+01
    endloop
  endfacet
  facet normal 9.914449e-01 0.000000e+00 1.305262e-01
    outer loop
      vertex   -5.869333e+00 2.000000e+00 3.706706e+01
      vertex   -5.900000e+00 0.000000e+00 3.730000e+01
      vertex   -5.869333e+00 0.000000e+00 3.706706e+01
    endloop
  endfacet
  facet normal 9.238795e-01 0.000000e+00 3.826834e-01
    outer loop
      vertex   -5.869333e+00 2.000000e+00 3.706706e+01
      vertex   -5.869333e+00 0.000000e+00 3.706706e+01
      vertex   -5.779423e+00 2.000000e+00 3.685000e+01
    endloop
  endfacet
  facet normal 9.238795e-01 0.000000e+00 3.826834e-01
    outer loop
      vertex   -5.779423e+00 2.000000e+00 3.685000e+01
      vertex   -5.869333e+00 0.000000e+00 3.706706e+01
      vertex   -5.779423e+00 0.000000e+00 3.685000e+01
    endloop
  endfacet
  facet normal 7.933533e-01 0.000000e+00 6.087614e-01
    outer loop
      vertex   -5.779423e+00 2.000000e+00 3.685000e+01
      vertex   -5.779423e+00 0.000000e+00 3.685000e+01
      vertex   -5.636396e+00 2.000000e+00 3.666360e+01
    endloop
  endfacet
  facet normal 7.933533e-01 0.000000e+00 6.087614e-01
    outer loop
      vertex   -5.636396e+00 2.000000e+00 3.666360e+01
      vertex   -5.779423e+00 0.000000e+00 3.685000e+01
      vertex   -5.636396e+00 0.000000e+00 3.666360e+01
    endloop
  endfacet
  facet normal 6.087614e-01 0.000000e+00 7.933533e-01
    outer loop
      vertex   -5.636396e+00 2.000000e+00 3.666360e+01
      vertex   -5.636396e+00 0.000000e+00 3.666360e+01
      vertex   -5.450000e+00 2.000000e+00 3.652058e+01
    endloop
  endfacet
  facet normal 6.087614e-01 0.000000e+00 7.933533e-01
    outer loop
      vertex   -5.450000e+00 2.000000e+00 3.652058e+01
      vertex   -5.636396e+00 0.000000e+00 3.666360e+01
      vertex   -5.450000e+00 0.000000e+00 3.652058e+01
    endloop
  endfacet
  facet normal 3.826834e-01 0.000000e+00 9.238795e-01
    outer loop
      vertex   -5.450000e+00 2.000000e+00 3.652058e+01
      vertex   -5.450000e+00 0.000000e+00 3.652058e+01
      vertex   -5.232937e+00 2.000000e+00 3.643067e+01
    endloop
  endfacet
  facet normal 3.826834e-01 3.398912e-16 9.238795e-01
    outer loop
      vertex   -5.232937e+00 2.000000e+00 3.643067e+01
      vertex   -5.450000e+00 0.000000e+00 3.652058e+01
      vertex   -5.232937e+00 0.000000e+00 3.643067e+01
    endloop
  endfacet
  facet normal 1.305262e-01 1.159305e-16 9.914449e-01
    outer loop
      vertex   -5.232937e+00 2.000000e+00 3.643067e+01
      vertex   -5.232937e+00 0.000000e+00 3.643067e+01
      vertex   -5.000000e+00 2.000000e+00 3.640000e+01
    endloop
  endfacet
  facet normal 1.305262e-01 0.000000e+00 9.914449e-01
    outer loop
      vertex   -5.000000e+00 2.000000e+00 3.640000e+01
      vertex   -5.232937e+00 0.000000e+00 3.643067e+01
      vertex   -5.000000e+00 0.000000e+00 3.640000e+01
    endloop
  endfacet
  facet normal -1.305262e-01 0.000000e+00 9.914449e-01
    outer loop
      vertex   -5.000000e+00 2.000000e+00 3.640000e+01
      vertex   -5.000000e+00 0.000000e+00 3.640000e+01
      vertex   -4.767063e+00 2.000000e+00 3.643067e+01
    endloop
  endfacet
  facet normal -1.305262e-01 0.000000e+00 9.914449e-01
    outer loop
      vertex   -4.767063e+00 2.000000e+00 3.643067e+01
      vertex   -5.000000e+00 0.000000e+00 3.640000e+01
      vertex   -4.767063e+00 0.000000e+00 3.643067e+01
    endloop
  endfacet
  facet normal -3.826834e-01 0.000000e+00 9.238795e-01
    outer loop
      vertex   -4.767063e+00 2.000000e+00 3.643067e+01
      vertex   -4.767063e+00 0.000000e+00 3.643067e+01
      vertex   -4.550000e+00 2.000000e+00 3.652058e+01
    endloop
  endfacet
  facet normal -3.826834e-01 -1.699456e-16 9.238795e-01
    outer loop
      vertex   -4.550000e+00 2.000000e+00 3.652058e+01
      vertex   -4.767063e+00 0.000000e+00 3.643067e+01
      vertex   -4.550000e+00 0.000000e+00 3.652058e+01
    endloop
  endfacet
  facet normal -6.087614e-01 -2.703444e-16 7.933533e-01
    outer loop
      vertex   -4.550000e+00 2.000000e+00 3.652058e+01
      vertex   -4.550000e+00 0.000000e+00 3.652058e+01
      vertex   -4.363604e+00 2.000000e+00 3.666360e+01
    endloop
  endfacet
  facet normal -6.087614e-01 0.000000e+00 7.933533e-01
    outer loop
      vertex   -4.363604e+00 2.000000e+00 3.666360e+01
      vertex   -4.550000e+00 0.000000e+00 3.652058e+01
      vertex   -4.363604e+00 0.000000e+00 3.666360e+01
    endloop
  endfacet
  facet normal -7.933533e-01 0.000000e+00 6.087614e-01
    outer loop
      vertex   -4.363604e+00 2.000000e+00 3.666360e+01
      vertex   -4.363604e+00 0.000000e+00 3.666360e+01
      vertex   -4.220577e+00 2.000000e+00 3.685000e+01
    endloop
  endfacet
  facet normal -7.933533e-01 -3.523197e-16 6.087614e-01
    outer loop
      vertex   -4.220577e+00 2.000000e+00 3.685000e+01
      vertex   -4.363604e+00 0.000000e+00 3.666360e+01
      vertex   -4.220577e+00 0.000000e+00 3.685000e+01
    endloop
  endfacet
  facet normal -9.238795e-01 -4.102849e-16 3.826834e-01
    outer loop
      vertex   -4.220577e+00 2.000000e+00 3.685000e+01
      vertex   -4.220577e+00 0.000000e+00 3.685000e+01
      vertex   -4.130667e+00 2.000000e+00 3.706706e+01
    endloop
  endfacet
  facet normal -9.238795e-01 0.000000e+00 3.826834e-01
    outer loop
      vertex   -4.130667e+00 2.000000e+00 3.706706e+01
      vertex   -4.220577e+00 0.000000e+00 3.685000e+01
      vertex   -4.130667e+00 0.000000e+00 3.706706e+01
    endloop
  endfacet
  facet normal -9.914449e-01 0.000000e+00 1.305262e-01
    outer loop
      vertex   -4.130667e+00 2.000000e+00 3.706706e+01
      vertex   -4.130667e+00 0.000000e+00 3.706706e+01
      vertex   -4.100000e+00 2.000000e+00 3.730000e+01
    endloop
  endfacet
  facet normal -9.914449e-01 0.000000e+00 1.305262e-01
    outer loop
      vertex   -4.100000e+00 2.000000e+00 3.730000e+01
      vertex   -4.130667e+00 0.000000e+00 3.706706e+01
      vertex   -4.100000e+00 0.000000e+00 3.730000e+01
    endloop
  endfacet
  facet normal -9.914449e-01 -0.000000e+00 -1.305262e-01
    outer loop
      vertex   -4.100000e+00 2.000000e+00 3.730000e+01
      vertex   -4.100000e+00 0.000000e+00 3.730000e+01
      vertex   -4.130667e+00 2.000000e+00 3.753294e+01
    endloop
  endfacet
  facet normal -9.914449e-01 -4.637222e-16 -1.305262e-01
    outer loop
      vertex   -4.130667e+00 2.000000e+00 3.753294e+01
      vertex   -4.100000e+00 0.000000e+00 3.730000e+01
      vertex   -4.130667e+00 0.000000e+00 3.753294e+01
    endloop
  endfacet
  facet normal -9.238795e-01 -1.359565e-15 -3.826834e-01
    outer loop
      vertex   -4.130667e+00 2.000000e+00 3.753294e+01
      vertex   -4.130667e+00 0.000000e+00 3.753294e+01
      vertex   -4.220577e+00 2.000000e+00 3.775000e+01
    endloop
  endfacet
  facet normal -9.238795e-01 4.102849e-16 -3.826834e-01
    outer loop
      vertex   -4.220577e+00 2.000000e+00 3.775000e+01
      vertex   -4.130667e+00 0.000000e+00 3.753294e+01
      vertex   -4.220577e+00 0.000000e+00 3.775000e+01
    endloop
  endfacet
  facet normal -7.933533e-01 3.523197e-16 -6.087614e-01
    outer loop
      vertex   -4.220577e+00 2.000000e+00 3.775000e+01
      vertex   -4.220577e+00 0.000000e+00 3.775000e+01
      vertex   -4.363604e+00 2.000000e+00 3.793640e+01
    endloop
  endfacet
  facet normal -7.933533e-01 -0.000000e+00 -6.087614e-01
    outer loop
      vertex   -4.363604e+00 2.000000e+00 3.793640e+01
      vertex   -4.220577e+00 0.000000e+00 3.775000e+01
      vertex   -4.363604e+00 0.000000e+00 3.793640e+01
    endloop
  endfacet
  facet normal -6.087614e-01 -0.000000e+00 -7.933533e-01
    outer loop
      vertex   -4.363604e+00 2.000000e+00 3.793640e+01
      vertex   -4.363604e+00 0.000000e+00 3.793640e+01
      vertex   -4.550000e+00 2.000000e+00 3.807942e+01
    endloop
  endfacet
  facet normal -6.087614e-01 2.703444e-16 -7.933533e-01
    outer loop
      vertex   -4.550000e+00 2.000000e+00 3.807942e+01
      vertex   -4.363604e+00 0.000000e+00 3.793640e+01
      vertex   -4.550000e+00 0.000000e+00 3.807942e+01
    endloop
  endfacet
  facet normal -3.826834e-01 1.699456e-16 -9.238795e-01
    outer loop
      vertex   -4.550000e+00 2.000000e+00 3.807942e+01
      vertex   -4.550000e+00 0.000000e+00 3.807942e+01
      vertex   -4.767063e+00 2.000000e+00 3.816933e+01
    endloop
  endfacet
  facet normal -3.826834e-01 -0.000000e+00 -9.238795e-01
    outer loop
      vertex   -4.767063e+00 2.000000e+00 3.816933e+01
      vertex   -4.550000e+00 0.000000e+00 3.807942e+01
      vertex   -4.767063e+00 0.000000e+00 3.816933e+01
    endloop
  endfacet
  facet normal -1.305262e-01 -0.000000e+00 -9.914449e-01
    outer loop
      vertex   -4.767063e+00 2.000000e+00 3.816933e+01
      vertex   -4.767063e+00 0.000000e+00 3.816933e+01
      vertex   -5.000000e+00 2.000000e+00 3.820000e+01
    endloop
  endfacet
  facet normal -1.305262e-01 -0.000000e+00 -9.914449e-01
    outer loop
      vertex   -5.000000e+00 2.000000e+00 3.820000e+01
      vertex   -4.767063e+00 0.000000e+00 3.816933e+01
      vertex   -5.000000e+00 0.000000e+00 3.820000e+01
    endloop
  endfacet
  facet normal 1.305262e-01 0.000000e+00 -9.914449e-01
    outer loop
      vertex   -5.000000e+00 2.000000e+00 3.820000e+01
      vertex   -5.000000e+00 0.000000e+00 3.820000e+01
      vertex   -5.232937e+00 2.000000e+00 3.816933e+01
    endloop
  endfacet
  facet normal 1.305262e-01 -1.159305e-16 -9.914449e-01
    outer loop
      vertex   -5.232937e+00 2.000000e+00 3.816933e+01
      vertex   -5.000000e+00 0.000000e+00 3.820000e+01
      vertex   -5.232937e+00 0.000000e+00 3.816933e+01
    endloop
  endfacet
  facet normal 3.826834e-01 -3.398912e-16 -9.238795e-01
    outer loop
      vertex   -5.232937e+00 2.000000e+00 3.816933e+01
      vertex   -5.232937e+00 0.000000e+00 3.816933e+01
      vertex   -5.450000e+00 2.000000e+00 3.807942e+01
    endloop
  endfacet
  facet normal 3.826834e-01 0.000000e+00 -9.238795e-01
    outer loop
      vertex   -5.450000e+00 2.000000e+00 3.807942e+01
      vertex   -5.232937e+00 0.000000e+00 3.816933e+01
      vertex   -5.450000e+00 0.000000e+00 3.807942e+01
    endloop
  endfacet
  facet normal 6.087614e-01 0.000000e+00 -7.933533e-01
    outer loop
      vertex   -5.450000e+00 2.000000e+00 3.807942e+01
      vertex   -5.450000e+00 0.000000e+00 3.807942e+01
      vertex   -5.636396e+00 2.000000e+00 3.793640e+01
    endloop
  endfacet
  facet normal 6.087614e-01 0.000000e+00 -7.933533e-01
    outer loop
      vertex   -5.636396e+00 2.000000e+00 3.793640e+01
      vertex   -5.450000e+00 0.000000e+00 3.807942e+01
      vertex   -5.636396e+00 0.000000e+00 3.793640e+01
    endloop
  endfacet
  facet normal 7.933533e-01 0.000000e+00 -6.087614e-01
    outer loop
      vertex   -5.636396e+00 2.000000e+00 3.793640e+01
      vertex   -5.636396e+00 0.000000e+00 3.793640e+01
      vertex   -5.779423e+00 2.000000e+00 3.775000e+01
    endloop
  endfacet
  facet normal 7.933533e-01 0.000000e+00 -6.087614e-01
    outer loop
      vertex   -5.779423e+00 2.000000e+00 3.775000e+01
      vertex   -5.636396e+00 0.000000e+00 3.793640e+01
      vertex   -5.779423e+00 0.000000e+00 3.775000e+01
    endloop
  endfacet
  facet normal 9.238795e-01 0.000000e+00 -3.826834e-01
    outer loop
      vertex   -5.779423e+00 2.000000e+00 3.775000e+01
      vertex   -5.779423e+00 0.000000e+00 3.775000e+01
      vertex   -5.869333e+00 2.000000e+00 3.753294e+01
    endloop
  endfacet
  facet normal 9.238795e-01 0.000000e+00 -3.826834e-01
    outer loop
      vertex   -5.869333e+00 2.000000e+00 3.753294e+01
      vertex   -5.779423e+00 0.000000e+00 3.775000e+01
      vertex   -5.869333e+00 0.000000e+00 3.753294e+01
    endloop
  endfacet
  facet normal 7.071068e-01 -0.000000e+00 7.071068e-01
    outer loop
      vertex   7.491716e+01 9.300000e+01 7.460000e+01
      vertex   7.980000e+01 9.300000e+01 6.971716e+01
      vertex   7.491716e+01 9.500000e+01 7.460000e+01
    endloop
  endfacet
  facet normal 7.071068e-01 0.000000e+00 7.071068e-01
    outer loop
      vertex   7.491716e+01 9.500000e+01 7.460000e+01
      vertex   7.980000e+01 9.300000e+01 6.971716e+01
      vertex   7.980000e+01 9.500000e+01 6.971716e+01
    endloop
  endfacet
  facet normal -3.793752e-16 0.000000e+00 1.000000e+00
    outer loop
      vertex   -7.491716e+01 9.300000e+01 7.460000e+01
      vertex   7.491716e+01 9.300000e+01 7.460000e+01
      vertex   -7.491716e+01 9.500000e+01 7.460000e+01
    endloop
  endfacet
  facet normal -3.793752e-16 0.000000e+00 1.000000e+00
    outer loop
      vertex   -7.491716e+01 9.500000e+01 7.460000e+01
      vertex   7.491716e+01 9.300000e+01 7.460000e+01
      vertex   7.491716e+01 9.500000e+01 7.460000e+01
    endloop
  endfacet
  facet normal -7.071068e-01 -5.024296e-15 7.071068e-01
    outer loop
      vertex   -7.980000e+01 9.300000e+01 6.971716e+01
      vertex   -7.491716e+01 9.300000e+01 7.460000e+01
      vertex   -7.980000e+01 9.500000e+01 6.971716e+01
    endloop
  endfacet
  facet normal -7.071068e-01 0.000000e+00 7.071068e-01
    outer loop
      vertex   -7.980000e+01 9.500000e+01 6.971716e+01
      vertex   -7.491716e+01 9.300000e+01 7.460000e+01
      vertex   -7.491716e+01 9.500000e+01 7.460000e+01
    endloop
  endfacet
  facet normal 0.000000e+00 -1.000000e+00 0.000000e+00
    outer loop
      vertex   -7.417157e+01 9.300000e+01 1.800000e+00
      vertex   7.417157e+01 9.300000e+01 1.800000e+00
      vertex   -7.800000e+01 9.300000e+01 5.628425e+00
    endloop
  endfacet
  facet normal 0.000000e+00 -1.000000e+00 0.000000e+00
    outer loop
      vertex   -7.800000e+01 9.300000e+01 5.628425e+00
      vertex   7.417157e+01 9.300000e+01 1.800000e+00
      vertex   7.800000e+01 9.300000e+01 5.628425e+00
    endloop
  endfacet
  facet normal 0.000000e+00 -1.000000e+00 0.000000e+00
    outer loop
      vertex   -7.800000e+01 9.300000e+01 5.628425e+00
      vertex   7.800000e+01 9.300000e+01 5.628425e+00
      vertex   7.800000e+01 9.300000e+01 6.970331e+01
    endloop
  endfacet
  facet normal -0.000000e+00 -1.000000e+00 0.000000e+00
    outer loop
      vertex   7.980000e+01 9.300000e+01 6.971716e+01
      vertex   7.491716e+01 9.300000e+01 7.460000e+01
      vertex   7.800000e+01 9.300000e+01 6.970331e+01
    endloop
  endfacet
  facet normal 0.000000e+00 -1.000000e+00 0.000000e+00
    outer loop
      vertex   7.800000e+01 9.300000e+01 6.970331e+01
      vertex   7.491716e+01 9.300000e+01 7.460000e+01
      vertex   -7.491716e+01 9.300000e+01 7.460000e+01
    endloop
  endfacet
  facet normal 0.000000e+00 -1.000000e+00 0.000000e+00
    outer loop
      vertex   7.800000e+01 9.300000e+01 6.970331e+01
      vertex   -7.491716e+01 9.300000e+01 7.460000e+01
      vertex   -7.800000e+01 9.300000e+01 6.971716e+01
    endloop
  endfacet
  facet normal -0.000000e+00 -1.000000e+00 0.000000e+00
    outer loop
      vertex   -7.800000e+01 9.300000e+01 6.971716e+01
      vertex   -7.491716e+01 9.300000e+01 7.460000e+01
      vertex   -7.980000e+01 9.300000e+01 6.971716e+01
    endloop
  endfacet
  facet normal 0.000000e+00 -1.000000e+00 0.000000e+00
    outer loop
      vertex   -7.800000e+01 9.300000e+01 6.971716e+01
      vertex   -7.800000e+01 9.300000e+01 5.628425e+00
      vertex   7.800000e+01 9.300000e+01 6.970331e+01
    endloop
  endfacet
  facet normal -7.694836e-03 1.561586e-16 9.999704e-01
    outer loop
      vertex   7.800000e+01 9.300000e+01 6.970331e+01
      vertex   7.800000e+01 2.000000e+00 6.970331e+01
      vertex   7.980000e+01 9.300000e+01 6.971716e+01
    endloop
  endfacet
  facet normal -7.694836e-03 0.000000e+00 9.999704e-01
    outer loop
      vertex   7.980000e+01 9.300000e+01 6.971716e+01
      vertex   7.800000e+01 2.000000e+00 6.970331e+01
      vertex   7.980000e+01 2.000000e+00 6.971716e+01
    endloop
  endfacet
  facet normal -1.000000e+00 -6.926936e-32 -4.435702e-16
    outer loop
      vertex   7.800000e+01 9.300000e+01 6.970331e+01
      vertex   7.800000e+01 9.300000e+01 5.628425e+00
      vertex   7.800000e+01 2.000000e+00 6.970331e+01
    endloop
  endfacet
  facet normal -1.000000e+00 0.000000e+00 -4.435702e-16
    outer loop
      vertex   7.800000e+01 2.000000e+00 6.970331e+01
      vertex   7.800000e+01 9.300000e+01 5.628425e+00
      vertex   7.800000e+01 2.000000e+00 5.628425e+00
    endloop
  endfacet
  facet normal -7.071068e-01 0.000000e+00 7.071068e-01
    outer loop
      vertex   7.800000e+01 9.300000e+01 5.628425e+00
      vertex   7.417157e+01 9.300000e+01 1.800000e+00
      vertex   7.800000e+01 2.000000e+00 5.628425e+00
    endloop
  endfacet
  facet normal -7.071068e-01 0.000000e+00 7.071068e-01
    outer loop
      vertex   7.800000e+01 2.000000e+00 5.628425e+00
      vertex   7.417157e+01 9.300000e+01 1.800000e+00
      vertex   7.417157e+01 2.000000e+00 1.800000e+00
    endloop
  endfacet
  facet normal -7.894919e-15 1.561632e-16 1.000000e+00
    outer loop
      vertex   -7.980000e+01 9.300000e+01 6.971716e+01
      vertex   -7.980000e+01 2.000000e+00 6.971716e+01
      vertex   -7.800000e+01 9.300000e+01 6.971716e+01
    endloop
  endfacet
  facet normal 0.000000e+00 0.000000e+00 1.000000e+00
    outer loop
      vertex   -7.800000e+01 9.300000e+01 6.971716e+01
      vertex   -7.980000e+01 2.000000e+00 6.971716e+01
      vertex   -7.800000e+01 2.000000e+00 6.971716e+01
    endloop
  endfacet
  facet normal 1.000000e+00 1.561632e-16 2.217372e-16
    outer loop
      vertex   -7.800000e+01 9.300000e+01 5.628425e+00
      vertex   -7.800000e+01 9.300000e+01 6.971716e+01
      vertex   -7.800000e+01 2.000000e+00 5.628425e+00
    endloop
  endfacet
  facet normal 1.000000e+00 0.000000e+00 4.434743e-16
    outer loop
      vertex   -7.800000e+01 2.000000e+00 5.628425e+00
      vertex   -7.800000e+01 9.300000e+01 6.971716e+01
      vertex   -7.800000e+01 2.000000e+00 6.971716e+01
    endloop
  endfacet
  facet normal 7.071068e-01 0.000000e+00 7.071068e-01
    outer loop
      vertex   -7.417157e+01 9.300000e+01 1.800000e+00
      vertex   -7.800000e+01 9.300000e+01 5.628425e+00
      vertex   -7.417157e+01 2.000000e+00 1.800000e+00
    endloop
  endfacet
  facet normal 7.071068e-01 1.117674e-16 7.071068e-01
    outer loop
      vertex   -7.417157e+01 2.000000e+00 1.800000e+00
      vertex   -7.800000e+01 9.300000e+01 5.628425e+00
      vertex   -7.800000e+01 2.000000e+00 5.628425e+00
    endloop
  endfacet
  facet normal -1.287275e-16 -2.440051e-18 1.000000e+00
    outer loop
      vertex   7.417157e+01 9.300000e+01 1.800000e+00
      vertex   -7.417157e+01 9.300000e+01 1.800000e+00
      vertex   7.417157e+01 2.000000e+00 1.800000e+00
    endloop
  endfacet
  facet normal -1.272306e-16 0.000000e+00 1.000000e+00
    outer loop
      vertex   7.417157e+01 2.000000e+00 1.800000e+00
      vertex   -7.417157e+01 9.300000e+01 1.800000e+00
      vertex   -7.417157e+01 2.000000e+00 1.800000e+00
    endloop
  endfacet
  facet normal -1.000000e+00 -4.672257e-30 6.575617e-16
    outer loop
      vertex   -7.980000e+01 0.000000e+00 6.971716e+01
      vertex   -7.980000e+01 2.000000e+00 6.971716e+01
      vertex   -7.980000e+01 0.000000e+00 4.882841e+00
    endloop
  endfacet
  facet normal -1.000000e+00 1.369160e-31 6.575617e-16
    outer loop
      vertex   -7.980000e+01 0.000000e+00 4.882841e+00
      vertex   -7.980000e+01 2.000000e+00 6.971716e+01
      vertex   -7.980000e+01 9.300000e+01 6.971716e+01
    endloop
  endfacet
  facet normal -1.000000e+00 -1.495879e-16 8.721345e-16
    outer loop
      vertex   -7.980000e+01 0.000000e+00 4.882841e+00
      vertex   -7.980000e+01 9.300000e+01 6.971716e+01
      vertex   -7.980000e+01 9.500000e+01 4.882841e+00
    endloop
  endfacet
  facet normal -1.000000e+00 -7.105427e-15 6.575617e-16
    outer loop
      vertex   -7.980000e+01 9.500000e+01 4.882841e+00
      vertex   -7.980000e+01 9.300000e+01 6.971716e+01
      vertex   -7.980000e+01 9.500000e+01 6.971716e+01
    endloop
  endfacet
  facet normal -7.071068e-01 -1.035944e-16 -7.071068e-01
    outer loop
      vertex   -7.491716e+01 0.000000e+00 -9.174706e-15
      vertex   -7.980000e+01 0.000000e+00 4.882841e+00
      vertex   -7.491716e+01 9.500000e+01 -8.881784e-15
    endloop
  endfacet
  facet normal -7.071068e-01 -1.353908e-16 -7.071068e-01
    outer loop
      vertex   -7.491716e+01 9.500000e+01 -8.881784e-15
      vertex   -7.980000e+01 0.000000e+00 4.882841e+00
      vertex   -7.980000e+01 9.500000e+01 4.882841e+00
    endloop
  endfacet
  facet normal 1.242145e-16 -5.843279e-18 -1.000000e+00
    outer loop
      vertex   7.491716e+01 0.000000e+00 9.436896e-15
      vertex   -7.491716e+01 0.000000e+00 -9.174706e-15
      vertex   7.491716e+01 9.500000e+01 8.881784e-15
    endloop
  endfacet
  facet normal 1.185547e-16 3.083386e-18 -1.000000e+00
    outer loop
      vertex   7.491716e+01 9.500000e+01 8.881784e-15
      vertex   -7.491716e+01 0.000000e+00 -9.174706e-15
      vertex   -7.491716e+01 9.500000e+01 -8.881784e-15
    endloop
  endfacet
  facet normal 7.071068e-01 3.305458e-17 -7.071068e-01
    outer loop
      vertex   7.980000e+01 0.000000e+00 4.882841e+00
      vertex   7.491716e+01 0.000000e+00 9.436896e-15
      vertex   7.980000e+01 9.500000e+01 4.882841e+00
    endloop
  endfacet
  facet normal 7.071068e-01 -5.415630e-18 -7.071068e-01
    outer loop
      vertex   7.980000e+01 9.500000e+01 4.882841e+00
      vertex   7.491716e+01 0.000000e+00 9.436896e-15
      vertex   7.491716e+01 9.500000e+01 8.881784e-15
    endloop
  endfacet
  facet normal 1.000000e+00 0.000000e+00 -2.191872e-16
    outer loop
      vertex   7.980000e+01 0.000000e+00 6.971716e+01
      vertex   7.980000e+01 0.000000e+00 4.882841e+00
      vertex   7.980000e+01 2.000000e+00 6.971716e+01
    endloop
  endfacet
  facet normal 1.000000e+00 0.000000e+00 -2.191872e-16
    outer loop
      vertex   7.980000e+01 2.000000e+00 6.971716e+01
      vertex   7.980000e+01 0.000000e+00 4.882841e+00
      vertex   7.980000e+01 9.300000e+01 6.971716e+01
    endloop
  endfacet
  facet normal 1.000000e+00 3.278777e-32 -2.191872e-16
    outer loop
      vertex   7.980000e+01 9.300000e+01 6.971716e+01
      vertex   7.980000e+01 0.000000e+00 4.882841e+00
      vertex   7.980000e+01 9.500000e+01 4.882841e+00
    endloop
  endfacet
  facet normal 1.000000e+00 0.000000e+00 -2.191872e-16
    outer loop
      vertex   7.980000e+01 9.300000e+01 6.971716e+01
      vertex   7.980000e+01 9.500000e+01 4.882841e+00
      vertex   7.980000e+01 9.500000e+01 6.971716e+01
    endloop
  endfacet
  facet normal 0.000000e+00 1.000000e+00 -0.000000e+00
    outer loop
      vertex   7.980000e+01 9.500000e+01 4.882841e+00
      vertex   -7.980000e+01 9.500000e+01 6.971716e+01
      vertex   7.980000e+01 9.500000e+01 6.971716e+01
    endloop
  endfacet
  facet normal 0.000000e+00 1.000000e+00 0.000000e+00
    outer loop
      vertex   7.980000e+01 9.500000e+01 6.971716e+01
      vertex   -7.980000e+01 9.500000e+01 6.971716e+01
      vertex   -7.491716e+01 9.500000e+01 7.460000e+01
    endloop
  endfacet
  facet normal 0.000000e+00 1.000000e+00 0.000000e+00
    outer loop
      vertex   7.980000e+01 9.500000e+01 6.971716e+01
      vertex   -7.491716e+01 9.500000e+01 7.460000e+01
      vertex   7.491716e+01 9.500000e+01 7.460000e+01
    endloop
  endfacet
  facet normal 0.000000e+00 1.000000e+00 -0.000000e+00
    outer loop
      vertex   7.491716e+01 9.500000e+01 8.881784e-15
      vertex   -7.491716e+01 9.500000e+01 -8.881784e-15
      vertex   7.980000e+01 9.500000e+01 4.882841e+00
    endloop
  endfacet
  facet normal 0.000000e+00 1.000000e+00 0.000000e+00
    outer loop
      vertex   7.980000e+01 9.500000e+01 4.882841e+00
      vertex   -7.491716e+01 9.500000e+01 -8.881784e-15
      vertex   -7.980000e+01 9.500000e+01 4.882841e+00
    endloop
  endfacet
  facet normal 0.000000e+00 1.000000e+00 0.000000e+00
    outer loop
      vertex   7.980000e+01 9.500000e+01 4.882841e+00
      vertex   -7.980000e+01 9.500000e+01 4.882841e+00
      vertex   -7.980000e+01 9.500000e+01 6.971716e+01
    endloop
  endfacet
  facet normal 7.071068e-01 -0.000000e+00 7.071068e-01
    outer loop
      vertex   7.491716e+01 0.000000e+00 7.460000e+01
      vertex   7.980000e+01 0.000000e+00 6.971716e+01
      vertex   7.491716e+01 2.000000e+00 7.460000e+01
    endloop
  endfacet
  facet normal 7.071068e-01 0.000000e+00 7.071068e-01
    outer loop
      vertex   7.491716e+01 2.000000e+00 7.460000e+01
      vertex   7.980000e+01 0.000000e+00 6.971716e+01
      vertex   7.980000e+01 2.000000e+00 6.971716e+01
    endloop
  endfacet
  facet normal -3.793752e-16 0.000000e+00 1.000000e+00
    outer loop
      vertex   -7.491716e+01 0.000000e+00 7.460000e+01
      vertex   7.491716e+01 0.000000e+00 7.460000e+01
      vertex   -7.491716e+01 2.000000e+00 7.460000e+01
    endloop
  endfacet
  facet normal -3.793752e-16 0.000000e+00 1.000000e+00
    outer loop
      vertex   -7.491716e+01 2.000000e+00 7.460000e+01
      vertex   7.491716e+01 0.000000e+00 7.460000e+01
      vertex   7.491716e+01 2.000000e+00 7.460000e+01
    endloop
  endfacet
  facet normal -7.071068e-01 -5.024296e-15 7.071068e-01
    outer loop
      vertex   -7.980000e+01 0.000000e+00 6.971716e+01
      vertex   -7.491716e+01 0.000000e+00 7.460000e+01
      vertex   -7.980000e+01 2.000000e+00 6.971716e+01
    endloop
  endfacet
  facet normal -7.071068e-01 0.000000e+00 7.071068e-01
    outer loop
      vertex   -7.980000e+01 2.000000e+00 6.971716e+01
      vertex   -7.491716e+01 0.000000e+00 7.460000e+01
      vertex   -7.491716e+01 2.000000e+00 7.460000e+01
    endloop
  endfacet
  facet normal 0.000000e+00 1.000000e+00 0.000000e+00
    outer loop
      vertex   4.130667e+00 2.000000e+00 3.706706e+01
      vertex   -4.130667e+00 2.000000e+00 3.706706e+01
      vertex   4.100000e+00 2.000000e+00 3.730000e+01
    endloop
  endfacet
  facet normal 0.000000e+00 1.000000e+00 0.000000e+00
    outer loop
      vertex   4.100000e+00 2.000000e+00 3.730000e+01
      vertex   -4.130667e+00 2.000000e+00 3.706706e+01
      vertex   -4.100000e+00 2.000000e+00 3.730000e+01
    endloop
  endfacet
  facet normal 0.000000e+00 1.000000e+00 0.000000e+00
    outer loop
      vertex   4.100000e+00 2.000000e+00 3.730000e+01
      vertex   -4.100000e+00 2.000000e+00 3.730000e+01
      vertex   -4.130667e+00 2.000000e+00 3.753294e+01
    endloop
  endfacet
  facet normal -0.000000e+00 1.000000e+00 0.000000e+00
    outer loop
      vertex   -4.130667e+00 2.000000e+00 3.706706e+01
      vertex   4.130667e+00 2.000000e+00 3.706706e+01
      vertex   -4.220577e+00 2.000000e+00 3.685000e+01
    endloop
  endfacet
  facet normal 0.000000e+00 1.000000e+00 0.000000e+00
    outer loop
      vertex   -4.220577e+00 2.000000e+00 3.685000e+01
      vertex   4.130667e+00 2.000000e+00 3.706706e+01
      vertex   4.220577e+00 2.000000e+00 3.685000e+01
    endloop
  endfacet
  facet normal -0.000000e+00 1.000000e+00 0.000000e+00
    outer loop
      vertex   -4.220577e+00 2.000000e+00 3.685000e+01
      vertex   4.220577e+00 2.000000e+00 3.685000e+01
      vertex   -4.363604e+00 2.000000e+00 3.666360e+01
    endloop
  endfacet
  facet normal 0.000000e+00 1.000000e+00 0.000000e+00
    outer loop
      vertex   -4.363604e+00 2.000000e+00 3.666360e+01
      vertex   4.220577e+00 2.000000e+00 3.685000e+01
      vertex   4.363604e+00 2.000000e+00 3.666360e+01
    endloop
  endfacet
  facet normal -0.000000e+00 1.000000e+00 0.000000e+00
    outer loop
      vertex   -4.363604e+00 2.000000e+00 3.666360e+01
      vertex   4.363604e+00 2.000000e+00 3.666360e+01
      vertex   -4.550000e+00 2.000000e+00 3.652058e+01
    endloop
  endfacet
  facet normal 0.000000e+00 1.000000e+00 0.000000e+00
    outer loop
      vertex   -4.550000e+00 2.000000e+00 3.652058e+01
      vertex   4.363604e+00 2.000000e+00 3.666360e+01
      vertex   4.550000e+00 2.000000e+00 3.652058e+01
    endloop
  endfacet
  facet normal -0.000000e+00 1.000000e+00 0.000000e+00
    outer loop
      vertex   -4.550000e+00 2.000000e+00 3.652058e+01
      vertex   4.550000e+00 2.000000e+00 3.652058e+01
      vertex   4.767063e+00 2.000000e+00 3.643067e+01
    endloop
  endfacet
  facet normal 0.000000e+00 1.000000e+00 0.000000e+00
    outer loop
      vertex   -4.550000e+00 2.000000e+00 3.652058e+01
      vertex   4.767063e+00 2.000000e+00 3.643067e+01
      vertex   -4.767063e+00 2.000000e+00 3.643067e+01
    endloop
  endfacet
  facet normal -0.000000e+00 1.000000e+00 0.000000e+00
    outer loop
      vertex   -4.767063e+00 2.000000e+00 3.643067e+01
      vertex   4.767063e+00 2.000000e+00 3.643067e+01
      vertex   5.000000e+00 2.000000e+00 3.640000e+01
    endloop
  endfacet
  facet normal 0.000000e+00 1.000000e+00 0.000000e+00
    outer loop
      vertex   -4.767063e+00 2.000000e+00 3.643067e+01
      vertex   5.000000e+00 2.000000e+00 3.640000e+01
      vertex   -5.000000e+00 2.000000e+00 3.640000e+01
    endloop
  endfacet
  facet normal -0.000000e+00 1.000000e+00 0.000000e+00
    outer loop
      vertex   -5.000000e+00 2.000000e+00 3.640000e+01
      vertex   5.000000e+00 2.000000e+00 3.640000e+01
      vertex   -7.417157e+01 2.000000e+00 1.800000e+00
    endloop
  endfacet
  facet normal 0.000000e+00 1.000000e+00 0.000000e+00
    outer loop
      vertex   -5.000000e+00 2.000000e+00 3.640000e+01
      vertex   -7.417157e+01 2.000000e+00 1.800000e+00
      vertex   -5.232937e+00 2.000000e+00 3.643067e+01
    endloop
  endfacet
  facet normal 0.000000e+00 1.000000e+00 0.000000e+00
    outer loop
      vertex   -5.232937e+00 2.000000e+00 3.643067e+01
      vertex   -7.417157e+01 2.000000e+00 1.800000e+00
      vertex   -7.800000e+01 2.000000e+00 5.628425e+00
    endloop
  endfacet
  facet normal 0.000000e+00 1.000000e+00 0.000000e+00
    outer loop
      vertex   -5.232937e+00 2.000000e+00 3.643067e+01
      vertex   -7.800000e+01 2.000000e+00 5.628425e+00
      vertex   -5.450000e+00 2.000000e+00 3.652058e+01
    endloop
  endfacet
  facet normal 0.000000e+00 1.000000e+00 0.000000e+00
    outer loop
      vertex   -5.450000e+00 2.000000e+00 3.652058e+01
      vertex   -7.800000e+01 2.000000e+00 5.628425e+00
      vertex   -5.636396e+00 2.000000e+00 3.666360e+01
    endloop
  endfacet
  facet normal 0.000000e+00 1.000000e+00 0.000000e+00
    outer loop
      vertex   -5.636396e+00 2.000000e+00 3.666360e+01
      vertex   -7.800000e+01 2.000000e+00 5.628425e+00
      vertex   -5.779423e+00 2.000000e+00 3.685000e+01
    endloop
  endfacet
  facet normal 0.000000e+00 1.000000e+00 0.000000e+00
    outer loop
      vertex   -5.779423e+00 2.000000e+00 3.685000e+01
      vertex   -7.800000e+01 2.000000e+00 5.628425e+00
      vertex   -5.869333e+00 2.000000e+00 3.706706e+01
    endloop
  endfacet
  facet normal 0.000000e+00 1.000000e+00 0.000000e+00
    outer loop
      vertex   -5.869333e+00 2.000000e+00 3.706706e+01
      vertex   -7.800000e+01 2.000000e+00 5.628425e+00
      vertex   -5.900000e+00 2.000000e+00 3.730000e+01
    endloop
  endfacet
  facet normal 0.000000e+00 1.000000e+00 0.000000e+00
    outer loop
      vertex   -5.900000e+00 2.000000e+00 3.730000e+01
      vertex   -7.800000e+01 2.000000e+00 5.628425e+00
      vertex   -7.800000e+01 2.000000e+00 6.971716e+01
    endloop
  endfacet
  facet normal 0.000000e+00 1.000000e+00 -0.000000e+00
    outer loop
      vertex   -5.900000e+00 2.000000e+00 3.730000e+01
      vertex   -7.800000e+01 2.000000e+00 6.971716e+01
      vertex   -5.869333e+00 2.000000e+00 3.753294e+01
    endloop
  endfacet
  facet normal 0.000000e+00 1.000000e+00 -0.000000e+00
    outer loop
      vertex   -5.869333e+00 2.000000e+00 3.753294e+01
      vertex   -7.800000e+01 2.000000e+00 6.971716e+01
      vertex   -5.779423e+00 2.000000e+00 3.775000e+01
    endloop
  endfacet
  facet normal 0.000000e+00 1.000000e+00 -0.000000e+00
    outer loop
      vertex   -5.779423e+00 2.000000e+00 3.775000e+01
      vertex   -7.800000e+01 2.000000e+00 6.971716e+01
      vertex   -5.636396e+00 2.000000e+00 3.793640e+01
    endloop
  endfacet
  facet normal 0.000000e+00 1.000000e+00 -0.000000e+00
    outer loop
      vertex   -5.636396e+00 2.000000e+00 3.793640e+01
      vertex   -7.800000e+01 2.000000e+00 6.971716e+01
      vertex   -5.450000e+00 2.000000e+00 3.807942e+01
    endloop
  endfacet
  facet normal 0.000000e+00 1.000000e+00 -0.000000e+00
    outer loop
      vertex   -5.450000e+00 2.000000e+00 3.807942e+01
      vertex   -7.800000e+01 2.000000e+00 6.971716e+01
      vertex   -5.232937e+00 2.000000e+00 3.816933e+01
    endloop
  endfacet
  facet normal 0.000000e+00 1.000000e+00 -0.000000e+00
    outer loop
      vertex   -5.232937e+00 2.000000e+00 3.816933e+01
      vertex   -7.800000e+01 2.000000e+00 6.971716e+01
      vertex   -5.000000e+00 2.000000e+00 3.820000e+01
    endloop
  endfacet
  facet normal 0.000000e+00 1.000000e+00 0.000000e+00
    outer loop
      vertex   -5.000000e+00 2.000000e+00 3.820000e+01
      vertex   -7.800000e+01 2.000000e+00 6.971716e+01
      vertex   -7.491716e+01 2.000000e+00 7.460000e+01
    endloop
  endfacet
  facet normal 0.000000e+00 1.000000e+00 -0.000000e+00
    outer loop
      vertex   -5.000000e+00 2.000000e+00 3.820000e+01
      vertex   -7.491716e+01 2.000000e+00 7.460000e+01
      vertex   5.000000e+00 2.000000e+00 3.820000e+01
    endloop
  endfacet
  facet normal 0.000000e+00 1.000000e+00 -0.000000e+00
    outer loop
      vertex   5.000000e+00 2.000000e+00 3.820000e+01
      vertex   -7.491716e+01 2.000000e+00 7.460000e+01
      vertex   7.491716e+01 2.000000e+00 7.460000e+01
    endloop
  endfacet
  facet normal 0.000000e+00 1.000000e+00 0.000000e+00
    outer loop
      vertex   5.000000e+00 2.000000e+00 3.820000e+01
      vertex   7.491716e+01 2.000000e+00 7.460000e+01
      vertex   7.800000e+01 2.000000e+00 6.970331e+01
    endloop
  endfacet
  facet normal 0.000000e+00 1.000000e+00 -0.000000e+00
    outer loop
      vertex   7.800000e+01 2.000000e+00 6.970331e+01
      vertex   7.491716e+01 2.000000e+00 7.460000e+01
      vertex   7.980000e+01 2.000000e+00 6.971716e+01
    endloop
  endfacet
  facet normal 0.000000e+00 1.000000e+00 0.000000e+00
    outer loop
      vertex   -7.417157e+01 2.000000e+00 1.800000e+00
      vertex   5.000000e+00 2.000000e+00 3.640000e+01
      vertex   7.417157e+01 2.000000e+00 1.800000e+00
    endloop
  endfacet
  facet normal 0.000000e+00 1.000000e+00 0.000000e+00
    outer loop
      vertex   7.417157e+01 2.000000e+00 1.800000e+00
      vertex   5.000000e+00 2.000000e+00 3.640000e+01
      vertex   5.232937e+00 2.000000e+00 3.643067e+01
    endloop
  endfacet
  facet normal 0.000000e+00 1.000000e+00 -0.000000e+00
    outer loop
      vertex   7.417157e+01 2.000000e+00 1.800000e+00
      vertex   5.232937e+00 2.000000e+00 3.643067e+01
      vertex   7.800000e+01 2.000000e+00 5.628425e+00
    endloop
  endfacet
  facet normal 0.000000e+00 1.000000e+00 0.000000e+00
    outer loop
      vertex   7.800000e+01 2.000000e+00 5.628425e+00
      vertex   5.232937e+00 2.000000e+00 3.643067e+01
      vertex   5.450000e+00 2.000000e+00 3.652058e+01
    endloop
  endfacet
  facet normal 0.000000e+00 1.000000e+00 0.000000e+00
    outer loop
      vertex   7.800000e+01 2.000000e+00 5.628425e+00
      vertex   5.450000e+00 2.000000e+00 3.652058e+01
      vertex   5.636396e+00 2.000000e+00 3.666360e+01
    endloop
  endfacet
  facet normal -0.000000e+00 1.000000e+00 0.000000e+00
    outer loop
      vertex   5.636396e+00 2.000000e+00 3.666360e+01
      vertex   5.779423e+00 2.000000e+00 3.685000e+01
      vertex   7.800000e+01 2.000000e+00 5.628425e+00
    endloop
  endfacet
  facet normal 0.000000e+00 1.000000e+00 0.000000e+00
    outer loop
      vertex   7.800000e+01 2.000000e+00 5.628425e+00
      vertex   5.779423e+00 2.000000e+00 3.685000e+01
      vertex   5.869333e+00 2.000000e+00 3.706706e+01
    endloop
  endfacet
  facet normal 0.000000e+00 1.000000e+00 0.000000e+00
    outer loop
      vertex   7.800000e+01 2.000000e+00 5.628425e+00
      vertex   5.869333e+00 2.000000e+00 3.706706e+01
      vertex   5.900000e+00 2.000000e+00 3.730000e+01
    endloop
  endfacet
  facet normal 0.000000e+00 1.000000e+00 0.000000e+00
    outer loop
      vertex   7.800000e+01 2.000000e+00 5.628425e+00
      vertex   5.900000e+00 2.000000e+00 3.730000e+01
      vertex   7.800000e+01 2.000000e+00 6.970331e+01
    endloop
  endfacet
  facet normal 0.000000e+00 1.000000e+00 0.000000e+00
    outer loop
      vertex   7.800000e+01 2.000000e+00 6.970331e+01
      vertex   5.900000e+00 2.000000e+00 3.730000e+01
      vertex   5.869333e+00 2.000000e+00 3.753294e+01
    endloop
  endfacet
  facet normal 0.000000e+00 1.000000e+00 0.000000e+00
    outer loop
      vertex   7.800000e+01 2.000000e+00 6.970331e+01
      vertex   5.869333e+00 2.000000e+00 3.753294e+01
      vertex   5.779423e+00 2.000000e+00 3.775000e+01
    endloop
  endfacet
  facet normal 0.000000e+00 1.000000e+00 -0.000000e+00
    outer loop
      vertex   5.779423e+00 2.000000e+00 3.775000e+01
      vertex   5.636396e+00 2.000000e+00 3.793640e+01
      vertex   7.800000e+01 2.000000e+00 6.970331e+01
    endloop
  endfacet
  facet normal 0.000000e+00 1.000000e+00 0.000000e+00
    outer loop
      vertex   7.800000e+01 2.000000e+00 6.970331e+01
      vertex   5.636396e+00 2.000000e+00 3.793640e+01
      vertex   5.450000e+00 2.000000e+00 3.807942e+01
    endloop
  endfacet
  facet normal 0.000000e+00 1.000000e+00 0.000000e+00
    outer loop
      vertex   7.800000e+01 2.000000e+00 6.970331e+01
      vertex   5.450000e+00 2.000000e+00 3.807942e+01
      vertex   5.232937e+00 2.000000e+00 3.816933e+01
    endloop
  endfacet
  facet normal 0.000000e+00 1.000000e+00 -0.000000e+00
    outer loop
      vertex   5.232937e+00 2.000000e+00 3.816933e+01
      vertex   5.000000e+00 2.000000e+00 3.820000e+01
      vertex   7.800000e+01 2.000000e+00 6.970331e+01
    endloop
  endfacet
  facet normal -0.000000e+00 1.000000e+00 0.000000e+00
    outer loop
      vertex   -5.000000e+00 2.000000e+00 3.820000e+01
      vertex   5.000000e+00 2.000000e+00 3.820000e+01
      vertex   -4.767063e+00 2.000000e+00 3.816933e+01
    endloop
  endfacet
  facet normal 0.000000e+00 1.000000e+00 0.000000e+00
    outer loop
      vertex   -4.767063e+00 2.000000e+00 3.816933e+01
      vertex   5.000000e+00 2.000000e+00 3.820000e+01
      vertex   4.767063e+00 2.000000e+00 3.816933e+01
    endloop
  endfacet
  facet normal -0.000000e+00 1.000000e+00 0.000000e+00
    outer loop
      vertex   -4.767063e+00 2.000000e+00 3.816933e+01
      vertex   4.767063e+00 2.000000e+00 3.816933e+01
      vertex   -4.550000e+00 2.000000e+00 3.807942e+01
    endloop
  endfacet
  facet normal 0.000000e+00 1.000000e+00 0.000000e+00
    outer loop
      vertex   -4.550000e+00 2.000000e+00 3.807942e+01
      vertex   4.767063e+00 2.000000e+00 3.816933e+01
      vertex   4.550000e+00 2.000000e+00 3.807942e+01
    endloop
  endfacet
  facet normal -0.000000e+00 1.000000e+00 0.000000e+00
    outer loop
      vertex   -4.550000e+00 2.000000e+00 3.807942e+01
      vertex   4.550000e+00 2.000000e+00 3.807942e+01
      vertex   4.363604e+00 2.000000e+00 3.793640e+01
    endloop
  endfacet
  facet normal 0.000000e+00 1.000000e+00 0.000000e+00
    outer loop
      vertex   -4.550000e+00 2.000000e+00 3.807942e+01
      vertex   4.363604e+00 2.000000e+00 3.793640e+01
      vertex   -4.363604e+00 2.000000e+00 3.793640e+01
    endloop
  endfacet
  facet normal -0.000000e+00 1.000000e+00 0.000000e+00
    outer loop
      vertex   -4.363604e+00 2.000000e+00 3.793640e+01
      vertex   4.363604e+00 2.000000e+00 3.793640e+01
      vertex   4.220577e+00 2.000000e+00 3.775000e+01
    endloop
  endfacet
  facet normal 0.000000e+00 1.000000e+00 0.000000e+00
    outer loop
      vertex   -4.363604e+00 2.000000e+00 3.793640e+01
      vertex   4.220577e+00 2.000000e+00 3.775000e+01
      vertex   -4.220577e+00 2.000000e+00 3.775000e+01
    endloop
  endfacet
  facet normal -0.000000e+00 1.000000e+00 0.000000e+00
    outer loop
      vertex   -4.220577e+00 2.000000e+00 3.775000e+01
      vertex   4.220577e+00 2.000000e+00 3.775000e+01
      vertex   4.130667e+00 2.000000e+00 3.753294e+01
    endloop
  endfacet
  facet normal 0.000000e+00 1.000000e+00 0.000000e+00
    outer loop
      vertex   -4.220577e+00 2.000000e+00 3.775000e+01
      vertex   4.130667e+00 2.000000e+00 3.753294e+01
      vertex   -4.130667e+00 2.000000e+00 3.753294e+01
    endloop
  endfacet
  facet normal -0.000000e+00 1.000000e+00 0.000000e+00
    outer loop
      vertex   -4.130667e+00 2.000000e+00 3.753294e+01
      vertex   4.130667e+00 2.000000e+00 3.753294e+01
      vertex   4.100000e+00 2.000000e+00 3.730000e+01
    endloop
  endfacet
  facet normal 0.000000e+00 1.000000e+00 -0.000000e+00
    outer loop
      vertex   -7.800000e+01 2.000000e+00 6.971716e+01
      vertex   -7.980000e+01 2.000000e+00 6.971716e+01
      vertex   -7.491716e+01 2.000000e+00 7.460000e+01
    endloop
  endfacet
  facet normal -0.000000e+00 -1.000000e+00 0.000000e+00
    outer loop
      vertex   4.130667e+00 0.000000e+00 3.753294e+01
      vertex   -4.130667e+00 0.000000e+00 3.753294e+01
      vertex   4.100000e+00 0.000000e+00 3.730000e+01
    endloop
  endfacet
  facet normal 0.000000e+00 -1.000000e+00 0.000000e+00
    outer loop
      vertex   4.100000e+00 0.000000e+00 3.730000e+01
      vertex   -4.130667e+00 0.000000e+00 3.753294e+01
      vertex   -4.100000e+00 0.000000e+00 3.730000e+01
    endloop
  endfacet
  facet normal -0.000000e+00 -1.000000e+00 -0.000000e+00
    outer loop
      vertex   4.100000e+00 0.000000e+00 3.730000e+01
      vertex   -4.100000e+00 0.000000e+00 3.730000e+01
      vertex   4.130667e+00 0.000000e+00 3.706706e+01
    endloop
  endfacet
  facet normal 0.000000e+00 -1.000000e+00 0.000000e+00
    outer loop
      vertex   4.130667e+00 0.000000e+00 3.706706e+01
      vertex   -4.100000e+00 0.000000e+00 3.730000e+01
      vertex   -4.130667e+00 0.000000e+00 3.706706e+01
    endloop
  endfacet
  facet normal -0.000000e+00 -1.000000e+00 -0.000000e+00
    outer loop
      vertex   4.130667e+00 0.000000e+00 3.706706e+01
      vertex   -4.130667e+00 0.000000e+00 3.706706e+01
      vertex   4.220577e+00 0.000000e+00 3.685000e+01
    endloop
  endfacet
  facet normal 0.000000e+00 -1.000000e+00 0.000000e+00
    outer loop
      vertex   4.220577e+00 0.000000e+00 3.685000e+01
      vertex   -4.130667e+00 0.000000e+00 3.706706e+01
      vertex   -4.220577e+00 0.000000e+00 3.685000e+01
    endloop
  endfacet
  facet normal -0.000000e+00 -1.000000e+00 -0.000000e+00
    outer loop
      vertex   4.220577e+00 0.000000e+00 3.685000e+01
      vertex   -4.220577e+00 0.000000e+00 3.685000e+01
      vertex   4.363604e+00 0.000000e+00 3.666360e+01
    endloop
  endfacet
  facet normal 0.000000e+00 -1.000000e+00 0.000000e+00
    outer loop
      vertex   4.363604e+00 0.000000e+00 3.666360e+01
      vertex   -4.220577e+00 0.000000e+00 3.685000e+01
      vertex   -4.363604e+00 0.000000e+00 3.666360e+01
    endloop
  endfacet
  facet normal -0.000000e+00 -1.000000e+00 -0.000000e+00
    outer loop
      vertex   4.363604e+00 0.000000e+00 3.666360e+01
      vertex   -4.363604e+00 0.000000e+00 3.666360e+01
      vertex   4.550000e+00 0.000000e+00 3.652058e+01
    endloop
  endfacet
  facet normal 0.000000e+00 -1.000000e+00 0.000000e+00
    outer loop
      vertex   4.550000e+00 0.000000e+00 3.652058e+01
      vertex   -4.363604e+00 0.000000e+00 3.666360e+01
      vertex   -4.550000e+00 0.000000e+00 3.652058e+01
    endloop
  endfacet
  facet normal -0.000000e+00 -1.000000e+00 -0.000000e+00
    outer loop
      vertex   4.550000e+00 0.000000e+00 3.652058e+01
      vertex   -4.550000e+00 0.000000e+00 3.652058e+01
      vertex   4.767063e+00 0.000000e+00 3.643067e+01
    endloop
  endfacet
  facet normal 0.000000e+00 -1.000000e+00 0.000000e+00
    outer loop
      vertex   4.767063e+00 0.000000e+00 3.643067e+01
      vertex   -4.550000e+00 0.000000e+00 3.652058e+01
      vertex   -4.767063e+00 0.000000e+00 3.643067e+01
    endloop
  endfacet
  facet normal -0.000000e+00 -1.000000e+00 -0.000000e+00
    outer loop
      vertex   4.767063e+00 0.000000e+00 3.643067e+01
      vertex   -4.767063e+00 0.000000e+00 3.643067e+01
      vertex   5.000000e+00 0.000000e+00 3.640000e+01
    endloop
  endfacet
  facet normal 0.000000e+00 -1.000000e+00 0.000000e+00
    outer loop
      vertex   5.000000e+00 0.000000e+00 3.640000e+01
      vertex   -4.767063e+00 0.000000e+00 3.643067e+01
      vertex   -5.000000e+00 0.000000e+00 3.640000e+01
    endloop
  endfacet
  facet normal -0.000000e+00 -1.000000e+00 -0.000000e+00
    outer loop
      vertex   5.000000e+00 0.000000e+00 3.640000e+01
      vertex   -5.000000e+00 0.000000e+00 3.640000e+01
      vertex   7.491716e+01 0.000000e+00 9.436896e-15
    endloop
  endfacet
  facet normal -0.000000e+00 -1.000000e+00 0.000000e+00
    outer loop
      vertex   7.491716e+01 0.000000e+00 9.436896e-15
      vertex   -5.000000e+00 0.000000e+00 3.640000e+01
      vertex   -7.491716e+01 0.000000e+00 -9.174706e-15
    endloop
  endfacet
  facet normal 0.000000e+00 -1.000000e+00 0.000000e+00
    outer loop
      vertex   -7.491716e+01 0.000000e+00 -9.174706e-15
      vertex   -5.000000e+00 0.000000e+00 3.640000e+01
      vertex   -5.232937e+00 0.000000e+00 3.643067e+01
    endloop
  endfacet
  facet normal 0.000000e+00 -1.000000e+00 0.000000e+00
    outer loop
      vertex   -7.491716e+01 0.000000e+00 -9.174706e-15
      vertex   -5.232937e+00 0.000000e+00 3.643067e+01
      vertex   -7.980000e+01 0.000000e+00 4.882841e+00
    endloop
  endfacet
  facet normal 0.000000e+00 -1.000000e+00 0.000000e+00
    outer loop
      vertex   -7.980000e+01 0.000000e+00 4.882841e+00
      vertex   -5.232937e+00 0.000000e+00 3.643067e+01
      vertex   -5.450000e+00 0.000000e+00 3.652058e+01
    endloop
  endfacet
  facet normal 0.000000e+00 -1.000000e+00 0.000000e+00
    outer loop
      vertex   -7.980000e+01 0.000000e+00 4.882841e+00
      vertex   -5.450000e+00 0.000000e+00 3.652058e+01
      vertex   -5.636396e+00 0.000000e+00 3.666360e+01
    endloop
  endfacet
  facet normal 0.000000e+00 -1.000000e+00 0.000000e+00
    outer loop
      vertex   -4.130667e+00 0.000000e+00 3.753294e+01
      vertex   4.130667e+00 0.000000e+00 3.753294e+01
      vertex   -4.220577e+00 0.000000e+00 3.775000e+01
    endloop
  endfacet
  facet normal 0.000000e+00 -1.000000e+00 0.000000e+00
    outer loop
      vertex   -4.220577e+00 0.000000e+00 3.775000e+01
      vertex   4.130667e+00 0.000000e+00 3.753294e+01
      vertex   4.220577e+00 0.000000e+00 3.775000e+01
    endloop
  endfacet
  facet normal 0.000000e+00 -1.000000e+00 0.000000e+00
    outer loop
      vertex   -4.220577e+00 0.000000e+00 3.775000e+01
      vertex   4.220577e+00 0.000000e+00 3.775000e+01
      vertex   -4.363604e+00 0.000000e+00 3.793640e+01
    endloop
  endfacet
  facet normal 0.000000e+00 -1.000000e+00 0.000000e+00
    outer loop
      vertex   -4.363604e+00 0.000000e+00 3.793640e+01
      vertex   4.220577e+00 0.000000e+00 3.775000e+01
      vertex   4.363604e+00 0.000000e+00 3.793640e+01
    endloop
  endfacet
  facet normal 0.000000e+00 -1.000000e+00 0.000000e+00
    outer loop
      vertex   -4.363604e+00 0.000000e+00 3.793640e+01
      vertex   4.363604e+00 0.000000e+00 3.793640e+01
      vertex   -4.550000e+00 0.000000e+00 3.807942e+01
    endloop
  endfacet
  facet normal 0.000000e+00 -1.000000e+00 0.000000e+00
    outer loop
      vertex   -4.550000e+00 0.000000e+00 3.807942e+01
      vertex   4.363604e+00 0.000000e+00 3.793640e+01
      vertex   4.550000e+00 0.000000e+00 3.807942e+01
    endloop
  endfacet
  facet normal 0.000000e+00 -1.000000e+00 0.000000e+00
    outer loop
      vertex   -4.550000e+00 0.000000e+00 3.807942e+01
      vertex   4.550000e+00 0.000000e+00 3.807942e+01
      vertex   -4.767063e+00 0.000000e+00 3.816933e+01
    endloop
  endfacet
  facet normal 0.000000e+00 -1.000000e+00 0.000000e+00
    outer loop
      vertex   -4.767063e+00 0.000000e+00 3.816933e+01
      vertex   4.550000e+00 0.000000e+00 3.807942e+01
      vertex   4.767063e+00 0.000000e+00 3.816933e+01
    endloop
  endfacet
  facet normal 0.000000e+00 -1.000000e+00 0.000000e+00
    outer loop
      vertex   -4.767063e+00 0.000000e+00 3.816933e+01
      vertex   4.767063e+00 0.000000e+00 3.816933e+01
      vertex   -5.000000e+00 0.000000e+00 3.820000e+01
    endloop
  endfacet
  facet normal 0.000000e+00 -1.000000e+00 0.000000e+00
    outer loop
      vertex   -5.000000e+00 0.000000e+00 3.820000e+01
      vertex   4.767063e+00 0.000000e+00 3.816933e+01
      vertex   5.000000e+00 0.000000e+00 3.820000e+01
    endloop
  endfacet
  facet normal 0.000000e+00 -1.000000e+00 0.000000e+00
    outer loop
      vertex   -5.000000e+00 0.000000e+00 3.820000e+01
      vertex   5.000000e+00 0.000000e+00 3.820000e+01
      vertex   -7.491716e+01 0.000000e+00 7.460000e+01
    endloop
  endfacet
  facet normal 0.000000e+00 -1.000000e+00 0.000000e+00
    outer loop
      vertex   -7.491716e+01 0.000000e+00 7.460000e+01
      vertex   5.000000e+00 0.000000e+00 3.820000e+01
      vertex   7.491716e+01 0.000000e+00 7.460000e+01
    endloop
  endfacet
  facet normal 0.000000e+00 -1.000000e+00 0.000000e+00
    outer loop
      vertex   7.491716e+01 0.000000e+00 7.460000e+01
      vertex   5.000000e+00 0.000000e+00 3.820000e+01
      vertex   5.232937e+00 0.000000e+00 3.816933e+01
    endloop
  endfacet
  facet normal 0.000000e+00 -1.000000e+00 -0.000000e+00
    outer loop
      vertex   7.491716e+01 0.000000e+00 7.460000e+01
      vertex   5.232937e+00 0.000000e+00 3.816933e+01
      vertex   7.980000e+01 0.000000e+00 6.971716e+01
    endloop
  endfacet
  facet normal 0.000000e+00 -1.000000e+00 0.000000e+00
    outer loop
      vertex   7.980000e+01 0.000000e+00 6.971716e+01
      vertex   5.232937e+00 0.000000e+00 3.816933e+01
      vertex   5.450000e+00 0.000000e+00 3.807942e+01
    endloop
  endfacet
  facet normal 0.000000e+00 -1.000000e+00 0.000000e+00
    outer loop
      vertex   7.980000e+01 0.000000e+00 6.971716e+01
      vertex   5.450000e+00 0.000000e+00 3.807942e+01
      vertex   5.636396e+00 0.000000e+00 3.793640e+01
    endloop
  endfacet
  facet normal 0.000000e+00 -1.000000e+00 0.000000e+00
    outer loop
      vertex   5.636396e+00 0.000000e+00 3.793640e+01
      vertex   5.779423e+00 0.000000e+00 3.775000e+01
      vertex   7.980000e+01 0.000000e+00 6.971716e+01
    endloop
  endfacet
  facet normal 0.000000e+00 -1.000000e+00 0.000000e+00
    outer loop
      vertex   7.980000e+01 0.000000e+00 6.971716e+01
      vertex   5.779423e+00 0.000000e+00 3.775000e+01
      vertex   5.869333e+00 0.000000e+00 3.753294e+01
    endloop
  endfacet
  facet normal 0.000000e+00 -1.000000e+00 0.000000e+00
    outer loop
      vertex   7.980000e+01 0.000000e+00 6.971716e+01
      vertex   5.869333e+00 0.000000e+00 3.753294e+01
      vertex   5.900000e+00 0.000000e+00 3.730000e+01
    endloop
  endfacet
  facet normal 0.000000e+00 -1.000000e+00 0.000000e+00
    outer loop
      vertex   7.980000e+01 0.000000e+00 6.971716e+01
      vertex   5.900000e+00 0.000000e+00 3.730000e+01
      vertex   7.980000e+01 0.000000e+00 4.882841e+00
    endloop
  endfacet
  facet normal 0.000000e+00 -1.000000e+00 0.000000e+00
    outer loop
      vertex   7.980000e+01 0.000000e+00 4.882841e+00
      vertex   5.900000e+00 0.000000e+00 3.730000e+01
      vertex   5.869333e+00 0.000000e+00 3.706706e+01
    endloop
  endfacet
  facet normal 0.000000e+00 -1.000000e+00 0.000000e+00
    outer loop
      vertex   7.980000e+01 0.000000e+00 4.882841e+00
      vertex   5.869333e+00 0.000000e+00 3.706706e+01
      vertex   5.779423e+00 0.000000e+00 3.685000e+01
    endloop
  endfacet
  facet normal 0.000000e+00 -1.000000e+00 -0.000000e+00
    outer loop
      vertex   5.779423e+00 0.000000e+00 3.685000e+01
      vertex   5.636396e+00 0.000000e+00 3.666360e+01
      vertex   7.980000e+01 0.000000e+00 4.882841e+00
    endloop
  endfacet
  facet normal 0.000000e+00 -1.000000e+00 0.000000e+00
    outer loop
      vertex   7.980000e+01 0.000000e+00 4.882841e+00
      vertex   5.636396e+00 0.000000e+00 3.666360e+01
      vertex   5.450000e+00 0.000000e+00 3.652058e+01
    endloop
  endfacet
  facet normal 0.000000e+00 -1.000000e+00 0.000000e+00
    outer loop
      vertex   7.980000e+01 0.000000e+00 4.882841e+00
      vertex   5.450000e+00 0.000000e+00 3.652058e+01
      vertex   5.232937e+00 0.000000e+00 3.643067e+01
    endloop
  endfacet
  facet normal -0.000000e+00 -1.000000e+00 0.000000e+00
    outer loop
      vertex   7.980000e+01 0.000000e+00 4.882841e+00
      vertex   5.232937e+00 0.000000e+00 3.643067e+01
      vertex   7.491716e+01 0.000000e+00 9.436896e-15
    endloop
  endfacet
  facet normal 0.000000e+00 -1.000000e+00 0.000000e+00
    outer loop
      vertex   7.491716e+01 0.000000e+00 9.436896e-15
      vertex   5.232937e+00 0.000000e+00 3.643067e+01
      vertex   5.000000e+00 0.000000e+00 3.640000e+01
    endloop
  endfacet
  facet normal -0.000000e+00 -1.000000e+00 0.000000e+00
    outer loop
      vertex   -5.869333e+00 0.000000e+00 3.753294e+01
      vertex   -7.980000e+01 0.000000e+00 6.971716e+01
      vertex   -5.900000e+00 0.000000e+00 3.730000e+01
    endloop
  endfacet
  facet normal -0.000000e+00 -1.000000e+00 0.000000e+00
    outer loop
      vertex   -5.900000e+00 0.000000e+00 3.730000e+01
      vertex   -7.980000e+01 0.000000e+00 6.971716e+01
      vertex   -7.980000e+01 0.000000e+00 4.882841e+00
    endloop
  endfacet
  facet normal 0.000000e+00 -1.000000e+00 -0.000000e+00
    outer loop
      vertex   -5.900000e+00 0.000000e+00 3.730000e+01
      vertex   -7.980000e+01 0.000000e+00 4.882841e+00
      vertex   -5.869333e+00 0.000000e+00 3.706706e+01
    endloop
  endfacet
  facet normal 0.000000e+00 -1.000000e+00 -0.000000e+00
    outer loop
      vertex   -5.869333e+00 0.000000e+00 3.706706e+01
      vertex   -7.980000e+01 0.000000e+00 4.882841e+00
      vertex   -5.779423e+00 0.000000e+00 3.685000e+01
    endloop
  endfacet
  facet normal 0.000000e+00 -1.000000e+00 -0.000000e+00
    outer loop
      vertex   -5.779423e+00 0.000000e+00 3.685000e+01
      vertex   -7.980000e+01 0.000000e+00 4.882841e+00
      vertex   -5.636396e+00 0.000000e+00 3.666360e+01
    endloop
  endfacet
  facet normal 0.000000e+00 -1.000000e+00 0.000000e+00
    outer loop
      vertex   -5.869333e+00 0.000000e+00 3.753294e+01
      vertex   -5.779423e+00 0.000000e+00 3.775000e+01
      vertex   -7.980000e+01 0.000000e+00 6.971716e+01
    endloop
  endfacet
  facet normal 0.000000e+00 -1.000000e+00 0.000000e+00
    outer loop
      vertex   -7.980000e+01 0.000000e+00 6.971716e+01
      vertex   -5.779423e+00 0.000000e+00 3.775000e+01
      vertex   -5.636396e+00 0.000000e+00 3.793640e+01
    endloop
  endfacet
  facet normal 0.000000e+00 -1.000000e+00 0.000000e+00
    outer loop
      vertex   -7.980000e+01 0.000000e+00 6.971716e+01
      vertex   -5.636396e+00 0.000000e+00 3.793640e+01
      vertex   -5.450000e+00 0.000000e+00 3.807942e+01
    endloop
  endfacet
  facet normal 0.000000e+00 -1.000000e+00 0.000000e+00
    outer loop
      vertex   -5.450000e+00 0.000000e+00 3.807942e+01
      vertex   -5.232937e+00 0.000000e+00 3.816933e+01
      vertex   -7.980000e+01 0.000000e+00 6.971716e+01
    endloop
  endfacet
  facet normal 0.000000e+00 -1.000000e+00 0.000000e+00
    outer loop
      vertex   -7.980000e+01 0.000000e+00 6.971716e+01
      vertex   -5.232937e+00 0.000000e+00 3.816933e+01
      vertex   -7.491716e+01 0.000000e+00 7.460000e+01
    endloop
  endfacet
  facet normal 0.000000e+00 -1.000000e+00 0.000000e+00
    outer loop
      vertex   -7.491716e+01 0.000000e+00 7.460000e+01
      vertex   -5.232937e+00 0.000000e+00 3.816933e+01
      vertex   -5.000000e+00 0.000000e+00 3.820000e+01
    endloop
  endfacet
endsolid
